Library\Bee\artifacts\mvdfrm\Unity.EditorCoroutines.Editor.ref.dll_34ED10A34098B2DB.mvfrm
Library\Bee\artifacts\mvdfrm\Unity.Performance.Profile-Analyzer.Editor.ref.dll_65A192712782EB2B.mvfrm
Library\Bee\artifacts\mvdfrm\Unity.PlasticSCM.Editor.ref.dll_257AEB342BE77856.mvfrm
Library\Bee\artifacts\mvdfrm\Unity.Rider.Editor.ref.dll_9B5591808ABA37AF.mvfrm
Library\Bee\artifacts\mvdfrm\Unity.TestTools.CodeCoverage.Editor.OpenCover.Model.ref.dll_D3B9364D6FB03093.mvfrm
Library\Bee\artifacts\mvdfrm\Unity.TestTools.CodeCoverage.Editor.OpenCover.Mono.Reflection.ref.dll_E668CD773429A040.mvfrm
Library\Bee\artifacts\mvdfrm\Unity.TestTools.CodeCoverage.Editor.ref.dll_F09CF4826CE11CD9.mvfrm
Library\Bee\artifacts\mvdfrm\Unity.TextMeshPro.Editor.ref.dll_159E061D77A10B86.mvfrm
Library\Bee\artifacts\mvdfrm\Unity.TextMeshPro.ref.dll_84A4293DBDD182DB.mvfrm
Library\Bee\artifacts\mvdfrm\Unity.Timeline.Editor.ref.dll_0D3D3C0B73557612.mvfrm
Library\Bee\artifacts\mvdfrm\Unity.Timeline.ref.dll_621CDDF9C514DF8F.mvfrm
Library\Bee\artifacts\mvdfrm\Unity.VSCode.Editor.ref.dll_3628369EB48E4C19.mvfrm
Library\Bee\artifacts\mvdfrm\Unity.VisualScripting.Core.Editor.ref.dll_EDC8690F57C5BDFD.mvfrm
Library\Bee\artifacts\mvdfrm\Unity.VisualScripting.Core.ref.dll_D75DF4EA1AFE54F4.mvfrm
Library\Bee\artifacts\mvdfrm\Unity.VisualScripting.Flow.Editor.ref.dll_6AF951BE66A4493E.mvfrm
Library\Bee\artifacts\mvdfrm\Unity.VisualScripting.Flow.ref.dll_1E6ED5409D07C9A3.mvfrm
Library\Bee\artifacts\mvdfrm\Unity.VisualScripting.SettingsProvider.Editor.ref.dll_A1A44354E0B583A8.mvfrm
Library\Bee\artifacts\mvdfrm\Unity.VisualScripting.Shared.Editor.ref.dll_9669F6EBFF6DFFB7.mvfrm
Library\Bee\artifacts\mvdfrm\Unity.VisualScripting.State.Editor.ref.dll_E03858E727F23F6F.mvfrm
Library\Bee\artifacts\mvdfrm\Unity.VisualScripting.State.ref.dll_D91762B7076BE462.mvfrm
Library\Bee\artifacts\mvdfrm\Unity.VisualStudio.Editor.ref.dll_3A975DBA53ABA4AD.mvfrm
Library\Bee\artifacts\mvdfrm\UnityEditor.TestRunner.ref.dll_193EC4CE382CBFB3.mvfrm
Library\Bee\artifacts\mvdfrm\UnityEditor.UI.ref.dll_4C98D3F7040CD4F5.mvfrm
Library\Bee\artifacts\mvdfrm\UnityEngine.TestRunner.ref.dll_E55D0F7C63F01D9E.mvfrm
Library\Bee\artifacts\mvdfrm\UnityEngine.UI.ref.dll_08FEAA520A2EFD60.mvfrm
Library\Bee\artifacts\mvdfrm\UnityEditor.Graphs.dll_CD5D19D2F4013334.mvfrm
Library\Bee\artifacts\mvdfrm\UnityEditor.CoreModule.dll_23FB1D6AF14C2B02.mvfrm
Library\Bee\artifacts\mvdfrm\UnityEditor.DeviceSimulatorModule.dll_1E8DF85AF9C7605F.mvfrm
Library\Bee\artifacts\mvdfrm\UnityEditor.DiagnosticsModule.dll_441432E99DD5E2ED.mvfrm
Library\Bee\artifacts\mvdfrm\UnityEditor.dll_6E73C6F5686DCEF3.mvfrm
Library\Bee\artifacts\mvdfrm\UnityEditor.GraphViewModule.dll_73F5E43358A06B24.mvfrm
Library\Bee\artifacts\mvdfrm\UnityEditor.PackageManagerUIModule.dll_F409313AFF0AC9DE.mvfrm
Library\Bee\artifacts\mvdfrm\UnityEditor.QuickSearchModule.dll_CF23B3F6F6ACDF46.mvfrm
Library\Bee\artifacts\mvdfrm\UnityEditor.SceneTemplateModule.dll_A2353D8A76B76287.mvfrm
Library\Bee\artifacts\mvdfrm\UnityEditor.TextCoreFontEngineModule.dll_3014BCD8E0B37240.mvfrm
Library\Bee\artifacts\mvdfrm\UnityEditor.TextCoreTextEngineModule.dll_77FCF34A70372B5E.mvfrm
Library\Bee\artifacts\mvdfrm\UnityEditor.UIBuilderModule.dll_C87E914FCB58E458.mvfrm
Library\Bee\artifacts\mvdfrm\UnityEditor.UIElementsModule.dll_F900EC9E5C778EFE.mvfrm
Library\Bee\artifacts\mvdfrm\UnityEditor.UIElementsSamplesModule.dll_7E87C0904DF3CC4F.mvfrm
Library\Bee\artifacts\mvdfrm\UnityEditor.UIServiceModule.dll_0170A2B2B4903472.mvfrm
Library\Bee\artifacts\mvdfrm\UnityEditor.UnityConnectModule.dll_F3AA705AB7745AB8.mvfrm
Library\Bee\artifacts\mvdfrm\UnityEngine.AccessibilityModule.dll_D4DAA921772D8A24.mvfrm
Library\Bee\artifacts\mvdfrm\UnityEngine.AIModule.dll_9C05AD58D607AD16.mvfrm
Library\Bee\artifacts\mvdfrm\UnityEngine.AndroidJNIModule.dll_7749D571A596FDD4.mvfrm
Library\Bee\artifacts\mvdfrm\UnityEngine.AnimationModule.dll_427B605C32FD3FCA.mvfrm
Library\Bee\artifacts\mvdfrm\UnityEngine.ARModule.dll_5578725C33250BDF.mvfrm
Library\Bee\artifacts\mvdfrm\UnityEngine.AssetBundleModule.dll_130CE6E859139438.mvfrm
Library\Bee\artifacts\mvdfrm\UnityEngine.AudioModule.dll_53FB15F2A29A9E3C.mvfrm
Library\Bee\artifacts\mvdfrm\UnityEngine.ClothModule.dll_BAE372ED7CB77D20.mvfrm
Library\Bee\artifacts\mvdfrm\UnityEngine.ClusterInputModule.dll_7346E57068FC2D7E.mvfrm
Library\Bee\artifacts\mvdfrm\UnityEngine.ClusterRendererModule.dll_243ABACC69826DE3.mvfrm
Library\Bee\artifacts\mvdfrm\UnityEngine.CoreModule.dll_471BF0BD9951962D.mvfrm
Library\Bee\artifacts\mvdfrm\UnityEngine.CrashReportingModule.dll_1CD315746E7747E5.mvfrm
Library\Bee\artifacts\mvdfrm\UnityEngine.DirectorModule.dll_F29C8430EE9F878A.mvfrm
Library\Bee\artifacts\mvdfrm\UnityEngine.dll_A1180DCDC6E15BD8.mvfrm
Library\Bee\artifacts\mvdfrm\UnityEngine.DSPGraphModule.dll_F7EDE59A610058AB.mvfrm
Library\Bee\artifacts\mvdfrm\UnityEngine.GameCenterModule.dll_A1971F8C6BD7EEC5.mvfrm
Library\Bee\artifacts\mvdfrm\UnityEngine.GIModule.dll_3441F66671B69530.mvfrm
Library\Bee\artifacts\mvdfrm\UnityEngine.GridModule.dll_248D0CABB1A62C24.mvfrm
Library\Bee\artifacts\mvdfrm\UnityEngine.HotReloadModule.dll_C3C41E620E305B4C.mvfrm
Library\Bee\artifacts\mvdfrm\UnityEngine.ImageConversionModule.dll_902CB87CEBA725D7.mvfrm
Library\Bee\artifacts\mvdfrm\UnityEngine.IMGUIModule.dll_8C5AB55968CC321D.mvfrm
Library\Bee\artifacts\mvdfrm\UnityEngine.InputLegacyModule.dll_A4520206F1054A29.mvfrm
Library\Bee\artifacts\mvdfrm\UnityEngine.InputModule.dll_BA70DDA318D2C2E0.mvfrm
Library\Bee\artifacts\mvdfrm\UnityEngine.JSONSerializeModule.dll_34F2325D7668EAAE.mvfrm
Library\Bee\artifacts\mvdfrm\UnityEngine.LocalizationModule.dll_B193AFC300782077.mvfrm
Library\Bee\artifacts\mvdfrm\UnityEngine.NVIDIAModule.dll_3A8FA9A91C2A0239.mvfrm
Library\Bee\artifacts\mvdfrm\UnityEngine.ParticleSystemModule.dll_6FE55EC0DC88D373.mvfrm
Library\Bee\artifacts\mvdfrm\UnityEngine.PerformanceReportingModule.dll_48205E67028097EC.mvfrm
Library\Bee\artifacts\mvdfrm\UnityEngine.Physics2DModule.dll_8F21504CD3FA375F.mvfrm
Library\Bee\artifacts\mvdfrm\UnityEngine.PhysicsModule.dll_DF313BC0F43AA88D.mvfrm
Library\Bee\artifacts\mvdfrm\UnityEngine.ProfilerModule.dll_24E2BD6787F90E97.mvfrm
Library\Bee\artifacts\mvdfrm\UnityEngine.RuntimeInitializeOnLoadManagerInitializerModule.dll_C0A10BD6F330E628.mvfrm
Library\Bee\artifacts\mvdfrm\UnityEngine.ScreenCaptureModule.dll_4ED9DFE28AD51710.mvfrm
Library\Bee\artifacts\mvdfrm\UnityEngine.SharedInternalsModule.dll_143DF75262D52127.mvfrm
Library\Bee\artifacts\mvdfrm\UnityEngine.SpriteMaskModule.dll_8AC3921C8D47843F.mvfrm
Library\Bee\artifacts\mvdfrm\UnityEngine.SpriteShapeModule.dll_2C6E14430EB5CC42.mvfrm
Library\Bee\artifacts\mvdfrm\UnityEngine.StreamingModule.dll_F7104DAC8284F708.mvfrm
Library\Bee\artifacts\mvdfrm\UnityEngine.SubstanceModule.dll_D3BB61F5CDD7F516.mvfrm
Library\Bee\artifacts\mvdfrm\UnityEngine.SubsystemsModule.dll_F570F87E5B8F6C52.mvfrm
Library\Bee\artifacts\mvdfrm\UnityEngine.TerrainModule.dll_F977B72FC9F8F17B.mvfrm
Library\Bee\artifacts\mvdfrm\UnityEngine.TerrainPhysicsModule.dll_70600793F5CBCE00.mvfrm
Library\Bee\artifacts\mvdfrm\UnityEngine.TextCoreFontEngineModule.dll_AE74382BF3B1310B.mvfrm
Library\Bee\artifacts\mvdfrm\UnityEngine.TextCoreTextEngineModule.dll_F65C6E9D8334EA29.mvfrm
Library\Bee\artifacts\mvdfrm\UnityEngine.TextRenderingModule.dll_781951ED420C9705.mvfrm
Library\Bee\artifacts\mvdfrm\UnityEngine.TilemapModule.dll_98741EB0E1B5D284.mvfrm
Library\Bee\artifacts\mvdfrm\UnityEngine.TLSModule.dll_B4BAFA7542388E21.mvfrm
Library\Bee\artifacts\mvdfrm\UnityEngine.UIElementsModule.dll_F9AF59E65EBBA849.mvfrm
Library\Bee\artifacts\mvdfrm\UnityEngine.UIElementsNativeModule.dll_3E82E5D070833A00.mvfrm
Library\Bee\artifacts\mvdfrm\UnityEngine.UIModule.dll_97794B86324EB2C2.mvfrm
Library\Bee\artifacts\mvdfrm\UnityEngine.UmbraModule.dll_CECFC20B2FC149AF.mvfrm
Library\Bee\artifacts\mvdfrm\UnityEngine.UNETModule.dll_D9C238A6E6608BA6.mvfrm
Library\Bee\artifacts\mvdfrm\UnityEngine.UnityAnalyticsCommonModule.dll_E35F1BAB1C69364A.mvfrm
Library\Bee\artifacts\mvdfrm\UnityEngine.UnityAnalyticsModule.dll_8F84CF8A88B0256F.mvfrm
Library\Bee\artifacts\mvdfrm\UnityEngine.UnityConnectModule.dll_E109F469B1FC5B63.mvfrm
Library\Bee\artifacts\mvdfrm\UnityEngine.UnityCurlModule.dll_7598018DA31131B7.mvfrm
Library\Bee\artifacts\mvdfrm\UnityEngine.UnityTestProtocolModule.dll_3A4A7682A7EF21A5.mvfrm
Library\Bee\artifacts\mvdfrm\UnityEngine.UnityWebRequestAssetBundleModule.dll_707A67F5E1984380.mvfrm
Library\Bee\artifacts\mvdfrm\UnityEngine.UnityWebRequestAudioModule.dll_C01CB24588EB6284.mvfrm
Library\Bee\artifacts\mvdfrm\UnityEngine.UnityWebRequestModule.dll_A1CBC026F69BC056.mvfrm
Library\Bee\artifacts\mvdfrm\UnityEngine.UnityWebRequestTextureModule.dll_D1ACC7F7545130D9.mvfrm
Library\Bee\artifacts\mvdfrm\UnityEngine.UnityWebRequestWWWModule.dll_C11EB3F972F4A695.mvfrm
Library\Bee\artifacts\mvdfrm\UnityEngine.VehiclesModule.dll_6A5F7DB068C95725.mvfrm
Library\Bee\artifacts\mvdfrm\UnityEngine.VFXModule.dll_359992E418A5F78E.mvfrm
Library\Bee\artifacts\mvdfrm\UnityEngine.VideoModule.dll_79049A5D652CB9E1.mvfrm
Library\Bee\artifacts\mvdfrm\UnityEngine.VirtualTexturingModule.dll_630F9A3F4931BA8B.mvfrm
Library\Bee\artifacts\mvdfrm\UnityEngine.VRModule.dll_EA4B720BD409383A.mvfrm
Library\Bee\artifacts\mvdfrm\UnityEngine.WindModule.dll_BD6ACBE62A881496.mvfrm
Library\Bee\artifacts\mvdfrm\UnityEngine.XRModule.dll_1D0A35105D438598.mvfrm
Library\Bee\artifacts\mvdfrm\Unity.Android.Gradle.dll_8907AE32C05FF5EA.mvfrm
Library\Bee\artifacts\mvdfrm\Unity.Android.Types.dll_3DC7BF6448E8F7F2.mvfrm
Library\Bee\artifacts\mvdfrm\UnityEditor.Android.Extensions.dll_FC20BA874FFD786A.mvfrm
Library\Bee\artifacts\mvdfrm\UnityEditor.UWP.Extensions.dll_11BE28E5937AA3A9.mvfrm
Library\Bee\artifacts\mvdfrm\UnityEditor.WindowsStandalone.Extensions.dll_F7A7788F49E9E8BE.mvfrm
Library\Bee\artifacts\mvdfrm\Unity.Plastic.Antlr3.Runtime.dll_B2F2C4575112901D.mvfrm
Library\Bee\artifacts\mvdfrm\Unity.Plastic.Newtonsoft.Json.dll_8BE522B373C298C8.mvfrm
Library\Bee\artifacts\mvdfrm\Unity.VisualScripting.IonicZip.dll_2812A92582E8A667.mvfrm
Library\Bee\artifacts\mvdfrm\Unity.VisualScripting.YamlDotNet.dll_AFFBA711D5EEE345.mvfrm
Library\Bee\artifacts\mvdfrm\Unity.VisualScripting.TextureAssets.dll_4719D06596BC413D.mvfrm
Library\Bee\artifacts\mvdfrm\Unity.VisualScripting.Antlr3.Runtime.dll_6168CDF306B7F364.mvfrm